{
    "application": {
        "name": "VistaSoft Service"
    },
    "menu": {
        "navigation": "Navigatie",
        "nav_lang": "Taal",
        "nav_sources": "Apparaten",
        "nav_alarms": "Alarmen",
        "nav_logs": "Geschiedenis",
        "nav_settings": "Instellingen",
        "nav_map": "Kaart",
        "nav_maintenance": "Onderhoud",
        "nav_search": "Zoeken",
        "nav_register_device": "Apparaat registreren",
        "nav_registered_products": "Mijn apparaten",
        "nav_favourites": "Favorieten",
        "nav_eula": "EULA",
        "nav_data_privacy": "Privacyverklaring",
        "nav_agb": "AV",
        "nav_floor_plan": "Bouwplan",
        "nav_service_planning": "Onderhoudsschema",
        "nav_news": "News",
        "nav_user_settings": "Gebruikersinstellingen",
        "nav_settings_application": "Programma-instellingen",
        "nav_settings_organization": "Organisatiebeheer",
        "nav_settings_members": "Ledenbeheer",
        "nav_location_settings": "Vestigingsinstellingen",
        "current_version": "Versie",
        "help": "Help"
    },
    "navigation": {
        "alert_messages": "Alarmmeldingen"
    },
    "buttons": {
        "login": "Aanmeldproces",
        "sign_up": "Registreren",
        "logout": "Uitloggen",
        "save": "Opslaan",
        "cancel": "Annulering",
        "perform": "Uitvoeren",
        "edit": "Bewerken",
        "pause": "Pauze",
        "discard": "Wissen",
        "finalise": "Voltooien",
        "confirm": "Wachtwoord bevestigen *",
        "submit": "Verzenden",
        "close": "Sluiten",
        "accept": "Aannemen",
        "decline": "Weigeren",
        "delete": "Wissen",
        "clear": "terugzetten"
    },
    "calendar": {
        "day": "Dag",
        "days": "Dagen",
        "week": "Week",
        "weeks": "Weken",
        "month": "Maand",
        "months": "Maanden",
        "year": "Jaar",
        "years": "Jaren"
    },
    "source_component": {
        "ref": "Referentienummer",
        "serial_number": "Serienummer",
        "firmware": "Firmwareversie",
        "mac_address": "MAC-adres",
        "partner": "Partner"
    },
    "sources_list": {
        "sources_list": "Apparaatlijst",
        "category": "Categorie",
        "category_all": "Alle"
    },
    "sources_details": {
        "messages": "Berichten",
        "maintenance": "Onderhoud",
        "settings": "Instellingen",
        "documents": "Documenten",
        "etk": "ETK",
        "detailView": "Apparaatinformatie",
        "prio_service": "Prioservice",
        "register_device": "Apparaat registreren",
        "service_partner": "Service partner"
    },
    "sources_details_maintenance": {
        "planned_maintence": "Gepland onderhoud",
        "new_maintenance": "Nieuw onderhoud",
        "finished_maintenance": "Afgesloten onderhoud",
        "no_data_found": "Geen gegevens aanwezig",
        "execute": "Uitvoeren",
        "edit": "Bewerken"
    },
    "prio_service": {
        "serial_number": "Serienummer",
        "phone_number": "Telefoonnummer",
        "description": "Beschrijving",
        "description_error": "Voer een beschrijving in",
        "uploader": "Beelden",
        "submitted": "Hartelijk dank Uw aanvraag werd succesvol doorgestuurd",
        "pick_images": "Selecteer afbeeldingen",
        "clear_all": "Alles wissen",
        "max_files_reached": "U kunt maximaal 5 afbeeldingen toevoegen",
        "error": "Controleer uw gegevens"
    },
    "sources_details_service_partner": {
        "service_partner": "Service partner"
    },
    "document_preview": {
        "filesize": "Bestandsgrootte",
        "remove_file": "Bestand verwijderen",
        "remove_question": "Moet het bestand werkelijk worden gewist?",
        "download_and_favourite_question": "Wilt u het bestand downloaden en aan uw favorieten toevoegen?",
        "download_file": "Bestand downloaden"
    },
    "maintenance": {
        "due_maintenance": "Verwacht onderhoud",
        "pending_maintenance": "Gepland onderhoud",
        "service_due": "Inspectie noodzakelijk",
        "estimated_in": "Na circa ",
        "expFilterType": {
            "Month": "Maand",
            "Quarter": "Kwartaal",
            "HalfYear": "Halfjaar",
            "Year": "Jaar"
        },
        "dialog_title": "Onderhoud bevestigen",
        "dialog_text": "Wilt u de onderhoudsbeurten bevestigen?",
        "confirm": "Wachtwoord bevestigen *",
        "caption": "Onderhoud",
        "details": "Details",
        "action": "Acties"
    },
    "maintenancePlan": {
        "accessLevel": {
            "TechnicianAccess": "Technicus",
            "UserAccess": "Gebruiker",
            "AdminAccess": "Beheerder"
        },
        "expIntervalType": {
            "Daily": "Dagelijks",
            "Weekly": "Wekelijks",
            "Weekday": "Elke werkdag",
            "Monthly": "Maandelijks",
            "Yearly": "Jaarlijks",
            "YearlyEntry": "Jaarlijks"
        }
    },
    "settings": {
        "settings": "Instellingen",
        "notification": "Berichten",
        "error": "Controleer uw gegevens",
        "success": "Gegevens opgeslagen",
        "email": "E-mail *",
        "email_error": "Voer uw e-mailadres in",
        "sms": "Mobiel nummer *",
        "sms_error": "Voer uw telefoonnummer in",
        "smsquota": "Quota *",
        "smsquota_error": "Voer het maximale aantal berichten in",
        "members": {
            "title": "Ledenbeheer",
            "add_button": "Toevoegen",
            "member_name": "Zoeken naar user",
            "add": "Nieuwe user toevoegen",
            "select_role": "Rol",
            "confirm_delete": {
                "text": "Moet het lid {email} echt worden verwijderd?",
                "button_confirm": "Lid verwijderen",
                "button_cancel": "annuleren"
            }
        },
        "organization": {
            "title": "Organisatie beheren",
            "add_group": "Groep toevoegen",
            "add_location": "Plaats toevoegen",
            "group_count": "geen groepen in deze groep | een groep in deze groep | {count} groepen in deze groep",
            "location_count": "geen plaatsen in deze groep | een plaats in deze groep | {count} plaatsen in deze groep",
            "name": "Naam",
            "name_error": "Voer een naam in",
            "parent": "Bovengeschikte groep",
            "parent_error": "Voer een bovengeschikte groep in",
            "street": "Straat",
            "street_error": "Voer de straat in",
            "housenr": "Nr.",
            "housenr_error": "Voer het huisnummer in",
            "zip": "Postcode",
            "zip_error": "Voer de postcode in",
            "city": "Plaats",
            "city_error": "Voer de plaats in",
            "button_add": "opslaan",
            "button_cancel": "terug",
            "pick_group": "Groep zoeken/selecteren",
            "no_group_found": "geen groep gevonden",
            "button_add_element": "toevoegen"
        },
        "location": {
            "title": "Vestigingsinstellingen",
            "dialog_title": "Vestiging wissen",
            "dialog_text": "Wilt u de vestiging werkelijk wissen?",
            "locationName": "Vestigingsnaam",
            "address": "Adres",
            "street": "Straat",
            "zip": "Postcode",
            "city": "Plaats",
            "location_error": "Voer een vestigingsplaats in",
            "deleteTitle": "Vestiging wissen",
            "deleteDescription": "Een vestiging werd definitief gewist. Een herstel is vervolgens niet meer mogelijk."
        }
    },
    "404": {
        "message": "Melding",
        "back": "Ga terug"
    },
    "messages": {
        "level": "Cat",
        "code": "Code",
        "message": "Melding",
        "date": "Tijd",
        "recordsPerPage": "Regels per pagina",
        "no_messages_found": "Geen meldingen gevonden",
        "category": "Categorie",
        "category_info": "Info",
        "category_notice": "Notice",
        "category_warning": "Warning",
        "category_error": "Error"
    },
    "map": {
        "search": "Zoeken"
    },
    "downloads": {
        "download_history": "Downloadgeschiedenis"
    },
    "options": {
        "remove": "Wissen"
    },
    "search": {
        "placeholder": "Naam, referentie of serienummer",
        "search": "Zoeken",
        "ref_title": "REF:",
        "sn_title": "SN:",
        "last_search": "Laatste zoekopdracht",
        "search_results": "Zoekresultaten",
        "no_results_found": "Geen zoekresultaten gevonden",
        "alert_title": "Fout",
        "alert_online_message": "Scan het serienummer.",
        "alert_offline_message": "U bevindt zich momenteel in de offline modus, daarom is een zoekopdracht enkel via het referentienummer mogelijk. Scan het referentienummer.",
        "scan_error_message": "De code wordt niet herkend. Probeer het nog een keer.",
        "image_not_found": "Afbeelding niet gevonden"
    },
    "news": {
        "news": "Berichten",
        "image_not_found": "Afbeelding niet gevonden"
    },
    "welcome": {
        "headline": "Onderhoudswerkzaamheden plannen",
        "get_started": "The best way to navigate your devices and discover new features. Let's get started!"
    },
    "license": {
        "confirm_eula": "EULA bevestigen",
        "not_found": "Licentiebestand kan niet worden gevonden.",
        "read_license_carefully": "Lees de licentieafspraken zorgvuldig door.",
        "eula": "EULA",
        "conditions": "AV",
        "data_privacy": "Ik heb de privacyverklaring gelezen en accepteer deze.",
        "show": "> weergeven"
    },
    "warnings": {
        "no_internet": "De verbinding met het internet kan niet tot stand worden gebracht."
    },
    "register": {
        "device": "Apparaat registreren",
        "practice": "Praktijk",
        "practice_error": "Voer de praktijknaam in",
        "contactPerson": "Contactpersoon",
        "street": "Straat",
        "street_error": "Voer de straat in",
        "housenr": "Huisnr.",
        "housenr_error": "Voer het huisnummer in",
        "street2": "Adrestoevoeging",
        "zip": "Postcode",
        "zip_error": "Voer de postcode in",
        "city": "Plaats",
        "city_error": "Voer de plaats in",
        "country": "Land",
        "country_error": "Voer het land in",
        "email": "E-mail",
        "email_error": "Voer uw e-mailadres in",
        "telephone": "Telefoon",
        "merchant": "Dealer",
        "merchant_error": "Voer de dealernaam in",
        "serialNumber": "Serienummer",
        "serialNumber_error": "Het serienummer is niet correct of wordt al gebruikt",
        "refNumber": "Referentienummer",
        "refNumber_error": "Het referentienummer is niet correct of werd al eens gebruikt",
        "installationDate": "Installatiedatum",
        "installationDate_error": "Voer de installatiedatum in",
        "form_submit_success": "Onderhoudswerk werd met succes ingepland.",
        "form_submit_error": "Er is een fout opgetreden, controleer uw gegevens",
        "form_submit_pending": "U bent momenteel offline. Zodra uw apparaat terug online is, zullen we de gegevens verzenden.",
        "alert_title": "Fout",
        "error_scan_no_serialnumber": "Uw gescande code is geen serienummer. Herhaal het proces.",
        "error_scan_no_refnumber": "Uw gescande code is geen referentienummer. Herhaal het proces.",
        "error_scan_bad_barcode": "Uw gescande code kan niet worden herkend. Herhaal het proces.",
        "privacy_policy": "Ik heb de privacyverklaring gelezen en ga ermee akkoord",
        "button_register": "Registreren"
    },
    "favourites": {
        "results": "Favorieten",
        "no_favourites": "U heeft momenteel geen favorieten gemarkeerd"
    },
    "legal": {
        "headline_eula": "EULA",
        "headline_data_privacy": "Privacyverklaring",
        "headline_agb": "AV"
    },
    "servicePlanning": {
        "headline": "Onderhoudswerkzaamheden plannen",
        "technician_costs_headline": "Kosten technieker",
        "technician_costs_info": "Kosten voor de technieker op basis van dit contract invoeren",
        "costs_per_hour": "Techniekerkosten per uur",
        "costs_per_hour_error": "Voer de techniekerkosten per uur in",
        "travel_expenses_info": "Verplaatsingskosten",
        "travel_expenses_error": "Voer de verplaatsingskosten in",
        "calculation": "Berekening van de werkzaamheden",
        "device_name": "Apparaat",
        "description": "Beschrijving",
        "technician_costs": "Techniekerkosten",
        "spare_parts": "Reserveonderdelen",
        "sn": "SN",
        "repair_time": "Reparatietijd",
        "sum": "Sum",
        "travel_expenses": "Verplaatsingskosten",
        "total_costs": "Volledige kosten",
        "commission": "Commission",
        "hours": "h",
        "currency": "€",
        "form_submit_success": "Onderhoudswerk werd met succes ingepland.",
        "download_service_request": "Download Service Request",
        "send_order_depot": "Bestelling naar depot verzenden",
        "upload": "uploaden",
        "create_case": "Onderhoudscase aanmaken",
        "create_service_report": "Onderhoudsrapport opmaken",
        "add_service": "Onderhoudswerkzaamheden toevoegen",
        "open_services": "Open onderhoudswerkzaamheden",
        "user": "User",
        "more": "meer",
        "details": "Details",
        "service_request": "Service-aanvraag",
        "status": "Status",
        "general_info": "Algemene informatie",
        "nature_of_problem": "Oorzaak probleem",
        "time_spent": "Benodigde tijd *"
    },
    "floorPlan": {
        "headline_floor_plan": "Ruimtelijk plan"
    },
    "report": {
        "clinic_name": "Naam kliniek",
        "clinic_address": "Adres van de kliniek",
        "depot": "Depot",
        "technician": "Technicus"
    },
    "servicePartner": {
        "share_location": "plaats delen",
        "select_service_partner": "Service partner selecteren",
        "no_results_found": "Geen zoekresultaten gevonden"
    },
    "sign_up": {
        "name": "Naam *",
        "email": "E-mail *",
        "email_error": "Voer uw e-mailadres in",
        "password": "Wachtwoord *",
        "confirm": "Wachtwoord bevestigen *",
        "confirm_error": "Wachtwoorden komen niet overeen",
        "register": "Registreren",
        "thanks": "Dank u!",
        "thanks_message": "Hartelijk dank voor uw registratie!",
        "thanks_email_message": "U ontvangt spoedig een e-mail met een registratielink",
        "reset_password": "Wachtwoord terugzetten",
        "reset_info": "Hier kunt u wachtwoord terugzetten. Nadat het wachtwoord met succes werd teruggezet, ontvangt u een e-mail met de bevestiging",
        "reset": "Wachtwoord teruggezet!",
        "reset_message": "Uw wachtwoord werd met succes teruggezet!",
        "reset_email_message": "U ontvangt spoedig een e-mail met een bevestiging voor uw gewijzigd wachtwoord"
    },
    "user": {
        "profile": {
            "profile_title": "Gebruikersgegevens bewerken",
            "name": "Naam",
            "name_error": "Voer een naam in",
            "email": "E-mailadres",
            "email_error": "Vermeld een geldig e-mailadres",
            "password_title": "Wachtwoord wijzigen",
            "password": "Nieuw wachtwoord",
            "password_confirm": "Nieuw wachtwoord bevestigen",
            "password_error": "Voer een wachtwoord in",
            "password_confirm_error": "Voer als bevestiging het nieuwe wachtwoord opnieuw in",
            "save_success": "Gegevens met succes opgeslagen",
            "save_error": "Fout bij het opslaan van de gegevens"
        }
    }
}
